module bitbucket.org/malandur/pulsar/pulsar-client-go

require (
	github.com/BurntSushi/toml v0.3.1 // indirect
	github.com/davecgh/go-spew v1.1.1
	github.com/gogo/protobuf v1.2.1
	github.com/golang/protobuf v1.3.1
	github.com/golang/snappy v0.0.1 // indirect
	github.com/linkedin/goavro v2.1.0+incompatible
	github.com/sirupsen/logrus v1.3.0
	github.com/stretchr/testify v1.3.0
	gopkg.in/linkedin/goavro.v1 v1.0.5 // indirect
	gopkg.in/natefinch/lumberjack.v2 v2.0.0
	gopkg.in/yaml.v2 v2.2.2 // indirect
)
